Relaxing,7
Acting from female energy,5
Acting from male energy,5
Balancing female and male energy,4
Being creative,5
Blocked Creativity,5
Burnout,2
Depression,2
Lack of pleasure,2
Blocked Energy,1
Gender confusion,5
Sexual preference,5
Physical blockages,1
Low Libido,1
Elevated libido,1
Sexual compulsions,3
Obsessive Behaviour,3
Erectile dysfunctions,1
Low Energy Level,1
Skin craving,1
Passive-agressive behaviour,3
Frigidity,3
Accepting your body,4
Accepting the other's body,4
Lack of desire,1
Balancing mutual desire,4
Moral blockages,6
Self-love,4
Sexual healing,7
Sexual fulfillment,7
Addiction,3
Avoiding sexuality,3
Balancing sexuality and love,4
Adultery,2
Promiscuity,2
Being shy,5
Loosing yourself,7
Frustration,1
Imbalanced relationships,4
Feeling incapable of shaping one's reality,6
Lack of vitality,1
Feeling anger,1
Sexual disfunction,1
