Meet soul family,3
Learn to meditate,1
Connecting with my higher self,7
Clean my aura,6
Connecting with angels,7
Connecting to other beings,2
Connecting to the world,3
Haunted by ghosts of the past,4
Traumas of the past,4
Fears for the future,6
Being present,1
Tantra relationship,2
Desire for deep trust,7
The invisible world,7
Self protection,1
Disbelief,7
Feeling limited,1
Desire to overcome limitations,3
Resignation,2
Discovering totem animal,3
Get to know spiritual guides,3
Surrender,7
Let go of worldly conflicts,2
Go through healing process,6
Dissolve karma,6
Understand deeper sense of life,7
Loneliness,3
Despair,1
Dissatisfaction,3
Completion,7
Stress,1
Removing blockages,2
Spiritual manifestation,7
More than humans,7
Interspecies communication,3
Right to spiritual practise,4
Fulfillment,4
Ancestral karma,6
Realisation in physical/material world,2
Disconnection from the source,7
Not feeling heard,5
Boredom,1
Confusion,6
